\relax 
\providecommand\hyper@newdestlabel[2]{}
\providecommand\HyperFirstAtBeginDocument{\AtBeginDocument}
\HyperFirstAtBeginDocument{\ifx\hyper@anchor\@undefined
\global\let\oldcontentsline\contentsline
\gdef\contentsline#1#2#3#4{\oldcontentsline{#1}{#2}{#3}}
\global\let\oldnewlabel\newlabel
\gdef\newlabel#1#2{\newlabelxx{#1}#2}
\gdef\newlabelxx#1#2#3#4#5#6{\oldnewlabel{#1}{{#2}{#3}}}
\AtEndDocument{\ifx\hyper@anchor\@undefined
\let\contentsline\oldcontentsline
\let\newlabel\oldnewlabel
\fi}
\fi}
\global\let\hyper@last\relax 
\gdef\HyperFirstAtBeginDocument#1{#1}
\providecommand\HyField@AuxAddToFields[1]{}
\providecommand\HyField@AuxAddToCoFields[2]{}
\bibstyle{model5-names}
\citation{BaumSnow2000241}
\citation{gibbons2005148}
\citation{Bowes20011}
\citation{gibbons2005148}
\Newlabel{mytitlenote}{1}
\@writefile{toc}{\contentsline {section}{\numberline {1}Introduction}{1}{section.1}}
\newlabel{intro}{{1}{1}{Introduction}{section.1}{}}
\citation{Hensher2010735}
\citation{Henderson20031}
\citation{Venables2003}
\citation{GibbonsMachin2008}
\citation{SEU2003}
\citation{DFT2013}
\citation{onstravel2013}
\citation{crossrail2016d}
\citation{grimes20131}
\citation{vess1996}
\citation{lochl}
\citation{dorantes}
\citation{Efthymiou20131}
\citation{hess}
\citation{kawamura}
\citation{Cohen2010317}
\citation{dube2011}
\citation{cervero}
\citation{brandtmaennig}
\citation{gatzlaff}
\citation{Bowes20011}
\citation{ryan1999}
\citation{Debrez2011}
\citation{moh}
\citation{rics}
\citation{zhang2009}
\citation{gibbons2005148}
\citation{henneberry}
\citation{forrest}
\citation{grimes20131}
\citation{mcmillenmcdonald}
\citation{dube2011}
\citation{ealingcouncil}
\citation{ons2001census}
\citation{onstravel2013}
\@writefile{toc}{\contentsline {section}{\numberline {2}Context and data}{6}{section.2}}
\newlabel{context}{{2}{6}{Context and data}{section.2}{}}
\citation{cervero2004a}
\citation{kahn2007}
\citation{crossrail2015a}
\citation{crossrail2016e}
\citation{crossrail2016e}
\citation{crossrail2016}
\@writefile{lof}{\contentsline {figure}{\numberline {1}{\ignorespaces Crossrail route map (Crossrail, 2014). Service provision for Ealing is planned to be provided by Southall, Hanwell, West Ealing, Ealing Broadway and Acton Main Line stations (Encircled) \citep  {crossrail2016e}.\relax }}{7}{figure.caption.2}}
\newlabel{fig:crossrail}{{1}{7}{Crossrail route map (Crossrail, 2014). Service provision for Ealing is planned to be provided by Southall, Hanwell, West Ealing, Ealing Broadway and Acton Main Line stations (Encircled) \citep {crossrail2016e}.\relax }{figure.caption.2}{}}
\@writefile{lot}{\contentsline {table}{\numberline {1}{\ignorespaces Crossrail timeline.\relax }}{8}{table.caption.1}}
\providecommand*\caption@xref[2]{\@setref\relax\@undefined{#1}}
\newlabel{tab:timeline}{{1}{8}{Crossrail timeline.\relax }{table.caption.1}{}}
\citation{onstravel2013}
\citation{landregistry}
\citation{landregistry}
\citation{osstrategy}
\citation{QGIS_software}
\@writefile{lof}{\contentsline {figure}{\numberline {2}{\ignorespaces Ealing's Crossrail corridor, spatial distribution and placebo test.\relax }}{10}{figure.caption.3}}
\newlabel{fig:ealing}{{2}{10}{Ealing's Crossrail corridor, spatial distribution and placebo test.\relax }{figure.caption.3}{}}
\citation{rosen1974}
\citation{Dube201424}
\citation{RePEc:ucp:jpolec:v:74:y:1966:p:132,Mathur201342}
\@writefile{lot}{\contentsline {table}{\numberline {2}{\ignorespaces Summary of continuous and dummy variables.\relax }}{11}{table.caption.4}}
\newlabel{tab:vars}{{2}{11}{Summary of continuous and dummy variables.\relax }{table.caption.4}{}}
\@writefile{toc}{\contentsline {section}{\numberline {3}Empirical strategy}{11}{section.3}}
\newlabel{methods}{{3}{11}{Empirical strategy}{section.3}{}}
\citation{anselinlozano2008}
\citation{anselin1988se}
\newlabel{eq:baseline}{{1}{12}{Empirical strategy}{equation.3.1}{}}
\newlabel{eq:cs_reg}{{2}{12}{Empirical strategy}{equation.3.2}{}}
\newlabel{eq:u}{{3}{12}{Empirical strategy}{equation.3.3}{}}
\citation{Hijzen2013170}
\citation{angrist2008mostly,Dube201424}
\citation{delgadoflorax2015}
\citation{mcmillenmcdonald}
\newlabel{eq:did}{{4}{14}{Empirical strategy}{equation.3.4}{}}
\newlabel{eq:sp_did}{{5}{15}{Empirical strategy}{equation.3.5}{}}
\newlabel{eq:udid}{{6}{15}{Empirical strategy}{equation.3.6}{}}
\newlabel{eq:tdid}{{3}{15}{Empirical strategy}{equation.3.7}{}}
\citation{Bowes20011}
\@writefile{toc}{\contentsline {section}{\numberline {4}Results}{16}{section.4}}
\newlabel{results}{{4}{16}{Results}{section.4}{}}
\@writefile{toc}{\contentsline {subsection}{\numberline {4.1}Main results}{16}{subsection.4.1}}
\@writefile{lot}{\contentsline {table}{\numberline {3}{\ignorespaces Estimation results.\relax }}{19}{table.caption.5}}
\newlabel{tab:results}{{3}{19}{Estimation results.\relax }{table.caption.5}{}}
\citation{grimes20131}
\@writefile{toc}{\contentsline {subsection}{\numberline {4.2}Sensitivity and robustness}{20}{subsection.4.2}}
\citation{mcmillenmcdonald}
\citation{Debrez2011}
\citation{moh}
\@writefile{lof}{\contentsline {figure}{\numberline {3}{\ignorespaces Quarterly growth of anticipation effect. \textit  {Note}: Dots represent the quarterly point estimates as absolute values, vertical bars show the 95\% confidence intervals, and the blue line indicates the loess line.\relax }}{21}{figure.caption.6}}
\newlabel{fig:quarter}{{3}{21}{Quarterly growth of anticipation effect. \textit {Note}: Dots represent the quarterly point estimates as absolute values, vertical bars show the 95\% confidence intervals, and the blue line indicates the loess line.\relax }{figure.caption.6}{}}
\@writefile{toc}{\contentsline {section}{\numberline {5}Discussion and policy implications}{21}{section.5}}
\newlabel{discussion}{{5}{21}{Discussion and policy implications}{section.5}{}}
\citation{mcmillenmcdonald}
\citation{Debrez2011}
\citation{grimes20131}
\citation{Efthymiou20131}
\citation{moh}
\citation{brandtmaennig}
\citation{gibbons2005148}
\citation{brandtmaennig}
\citation{gibbons2005148}
\@writefile{lot}{\contentsline {table}{\numberline {4}{\ignorespaces Previous findings in the hedonic literature for rail interventions.\relax }}{22}{table.caption.7}}
\newlabel{table:nonlin}{{4}{22}{Previous findings in the hedonic literature for rail interventions.\relax }{table.caption.7}{}}
\citation{Dube201424}
\citation{heckert}
\citation{grimes20131}
\citation{McDonald1995261}
\citation{anton2015}
\citation{anton2013}
\citation{ealingcouncil}
\citation{McDonald1995261}
\citation{gibbons2005148}
\citation{ealingcouncil}
\citation{Efthymiou20131}
\citation{gibbons2005148}
\@writefile{toc}{\contentsline {section}{\numberline {6}Conclusion:}{25}{section.6}}
\newlabel{conclusion}{{6}{25}{Conclusion:}{section.6}{}}
\citation{liu2009}
\citation{crossrail2016c}
\@writefile{toc}{\contentsline {section}{\numberline {7}Acknowledgements}{26}{section.7}}
\bibdata{references}
\bibcite{angrist2008mostly}{{1}{2008}{{Angrist \& Pischke}}{{}}}
\bibcite{anselin1988se}{{2}{1988}{{Anselin}}{{}}}
\bibcite{anselinlozano2008}{{3}{2008}{{Anselin \& Lozano-Gracia}}{{}}}
\bibcite{BaumSnow2000241}{{4}{2000}{{Baum-Snow \& Kahn}}{{}}}
\bibcite{Bowes20011}{{5}{2001}{{Bowes \& Ihlanfeldt}}{{}}}
\bibcite{brandtmaennig}{{6}{2012}{{Brandt \& Maennig}}{{}}}
\bibcite{cervero2004a}{{7}{2004a}{{Cervero}}{{}}}
\bibcite{cervero}{{8}{2002}{{Cervero \& Duncan}}{{}}}
\bibcite{Cohen2010317}{{9}{2010}{{Cohen}}{{}}}
\bibcite{crossrail2015a}{{10}{2016a}{{Crossrail}}{{}}}
\bibcite{crossrail2016}{{11}{2016b}{{Crossrail}}{{}}}
\bibcite{crossrail2016c}{{12}{2016c}{{Crossrail}}{{}}}
\bibcite{crossrail2016d}{{13}{2016d}{{Crossrail}}{{}}}
\bibcite{crossrail2016e}{{14}{2016e}{{Crossrail}}{{}}}
\bibcite{Debrez2011}{{15}{2011}{{Debrezion et~al.}}{{Debrezion, Pels \& Rietveld}}}
\bibcite{delgadoflorax2015}{{16}{2015}{{Delgado \& Florax}}{{}}}
\bibcite{DFT2013}{{17}{2013}{{DfT}}{{}}}
\bibcite{dorantes}{{18}{2011}{{Dorantes et~al.}}{{Dorantes, Paez \& Vassallo}}}
\bibcite{dube2011}{{19}{2011a}{{Dub\'{e} et~al.}}{{Dub\'{e}, Des~Rosiers, Thériault \& Dib}}}
\bibcite{Dube201424}{{20}{2014}{{Dub\'{e} et~al.}}{{Dub\'{e}, Legros, Thériault \& Rosiers}}}
\bibcite{ealingcouncil}{{21}{2011}{{Ealing Council}}{{}}}
\bibcite{Efthymiou20131}{{22}{2013{a}}{{Efthymiou \& Antoniou}}{{}}}
\bibcite{anton2013}{{23}{2013{b}}{{Efthymiou \& Antoniou}}{{}}}
\bibcite{anton2015}{{24}{2015}{{Efthymiou \& Antoniou}}{{}}}
\bibcite{forrest}{{25}{1996}{{Forrest et~al.}}{{Forrest, Glen \& Ward}}}
\bibcite{gatzlaff}{{26}{1997}{{Gatzlaff \& Haurin}}{{}}}
\bibcite{gibbons2005148}{{27}{2005}{{Gibbons \& Machin}}{{}}}
\bibcite{GibbonsMachin2008}{{28}{2008}{{Gibbons \& Machin}}{{}}}
\bibcite{grimes20131}{{29}{2013}{{Grimes \& Young}}{{}}}
\bibcite{heckert}{{30}{2012}{{Heckert \& Mennis}}{{}}}
\bibcite{Henderson20031}{{31}{2003}{{Henderson}}{{}}}
\bibcite{henneberry}{{32}{1998}{{Henneberry}}{{}}}
\bibcite{Hensher2010735}{{33}{2010}{{Hensher}}{{}}}
\bibcite{hess}{{34}{2007}{{Hess \& Almeida}}{{}}}
\bibcite{Hijzen2013170}{{35}{2013}{{Hijzen et~al.}}{{Hijzen, Martins, Schank \& Upward}}}
\bibcite{kahn2007}{{36}{2007}{{Kahn}}{{}}}
\bibcite{kawamura}{{37}{2005}{{Kawamura \& Mahajan}}{{}}}
\bibcite{RePEc:ucp:jpolec:v:74:y:1966:p:132}{{38}{1966}{{Lancaster}}{{}}}
\bibcite{landregistry}{{39}{2016}{{Land Registry}}{{}}}
\bibcite{liu2009}{{40}{2009}{{Liu et~al.}}{{Liu, Huang, Yang \& Zhang}}}
\bibcite{lochl}{{41}{2010}{{Lochl \& Axhausen}}{{}}}
\bibcite{Mathur201342}{{42}{2013}{{Mathur \& Ferrell}}{{}}}
\bibcite{McDonald1995261}{{43}{1995}{{McDonald \& Osuji}}{{}}}
\bibcite{mcmillenmcdonald}{{44}{2004}{{McMillen \& McDonald}}{{}}}
\bibcite{moh}{{45}{2013}{{Mohammed et~al.}}{{Mohammed, Graham, Melo \& Anderson}}}
\bibcite{ons2001census}{{46}{2011}{{Office for National Statistics}}{{}}}
\bibcite{onstravel2013}{{47}{2013}{{ONS}}{{}}}
\bibcite{QGIS_software}{{48}{2016}{{QGIS Development Team}}{{}}}
\bibcite{rics}{{49}{2002}{{RICS}}{{}}}
\bibcite{rosen1974}{{50}{1974}{{Rosen}}{{}}}
\bibcite{ryan1999}{{51}{1999}{{Ryan}}{{}}}
\bibcite{SEU2003}{{52}{2003}{{SEU}}{{}}}
\bibcite{osstrategy}{{53}{2011}{{Strategi}}{{}}}
\bibcite{Venables2003}{{54}{2007}{{Venables}}{{}}}
\bibcite{vess1996}{{55}{1996}{{Vessali}}{{}}}
\bibcite{zhang2009}{{56}{2009}{{Zhang}}{{}}}
